{
  "images" : [
    {
      "idiom" : "universal",
      "scale" : "1x"
    },
    {
      "idiom" : "universal",
      "filename" : "blank-profile-picture-973460_960_720 copy.png",
      "scale" : "2x"
    },
    {
      "idiom" : "universal",
      "filename" : "blank-profile-picture-973460_960_720.png",
      "scale" : "3x"
    }
  ],
  "info" : {
    "version" : 1,
    "author" : "xcode"
  }
}