{
  "images" : [
    {
      "idiom" : "universal",
      "scale" : "1x"
    },
    {
      "resizing" : {
        "mode" : "9-part",
        "center" : {
          "mode" : "tile",
          "width" : 1,
          "height" : 1
        },
        "cap-insets" : {
          "bottom" : 133,
          "top" : 138,
          "right" : 69,
          "left" : 54
        }
      },
      "idiom" : "universal",
      "filename" : "activeTackCellBack@2x.png",
      "scale" : "2x"
    },
    {
      "resizing" : {
        "mode" : "9-part",
        "center" : {
          "mode" : "tile",
          "width" : 1,
          "height" : 1
        },
        "cap-insets" : {
          "bottom" : 197,
          "top" : 210,
          "right" : 81,
          "left" : 85
        }
      },
      "idiom" : "universal",
      "filename" : "activeTackCellBack@3x.png",
      "scale" : "3x"
    }
  ],
  "info" : {
    "version" : 1,
    "author" : "xcode"
  }
}